(DT,NN)
(DT,VB)
(DT,NNP)
(DT,VBD)
(DT,VBN)
(MD,VBD)
(MD,VBN)
(VB,VBD)
(VB,VBN)
(VBP,VBD)
(VBP,VBN)
(VBZ,VBD)
(VBZ,VBN)
(TO,VBD)
(TO,VBN)
(IN,VB)
(IN,VBP)
(PRP,NNS)
(PRP,VBZ)
(JJ,JJR)
(JJ,RBR)